[
  {
    "name": "${PREFIX}-site",
    "image": "${IMAGE}",
    "essential": true,
    "memory": 2048,
    "cpu": 1024,
    "portMappings": [
      {
        "containerPort": 5000,
        "hostPort": 5000,
        "protocol": "tcp"
      }
    ],
    "environment": [
      {
        "name": "ASPNETCORE_FORWARDEDHEADERS_ENABLED",
        "value": "true"
      },
      {
        "name": "ASPNETCORE_URLS",
        "value": "http://+:5000"
      },
      {
        "name": "ORCHARD_APP_DATA",
        "value": "${ORCHARD_APP_DATA}"
      }
    ],
    "logConfiguration": {
      "logDriver": "awslogs",
      "options": {
        "awslogs-group": "/ecs/${PREFIX}/",
        "awslogs-region": "${REGION}",
        "awslogs-stream-prefix": "task-${PREFIX}-site"
      }
    },
    "linuxParameters": {
      "initProcessEnabled": true
    },
    "mountPoints": [
      {
        "sourceVolume": "efs",
        "containerPath": "/efs"
      }
    ]
  }
]
